waveform/datapath.vcd
$date
	Sat Oct 04 23:06:24 2025
$end
$version
	Icarus Verilog
$end
$timescale
	1s
$end
$scope module tb $end
$var wire 32 ! d_o_pc [31:0] $end
$var wire 6 " ds_es_o_opcode [5:0] $end
$var wire 32 # write_back_data [31:0] $end
$var reg 1 $ d_clk $end
$var reg 1 % d_i_ALUSrc $end
$var reg 1 & d_i_MemRead $end
$var reg 1 ' d_i_MemWrite $end
$var reg 1 ( d_i_MemtoReg $end
$var reg 1 ) d_i_RegDst $end
$var reg 1 * d_i_RegWrite $end
$var reg 1 + d_i_ce $end
$var reg 1 , d_rst $end
$scope module d $end
$var wire 1 - d_clk $end
$var wire 1 . d_i_ALUSrc $end
$var wire 1 / d_i_MemRead $end
$var wire 1 0 d_i_MemWrite $end
$var wire 1 1 d_i_MemtoReg $end
$var wire 1 2 d_i_RegDst $end
$var wire 1 3 d_i_RegWrite $end
$var wire 1 4 d_i_ce $end
$var wire 32 5 d_o_pc [31:0] $end
$var wire 1 6 d_rst $end
$var wire 1 7 ds_es_o_ce $end
$var wire 32 8 ds_es_o_data_rs [31:0] $end
$var wire 32 9 ds_es_o_data_rt [31:0] $end
$var wire 6 : ds_es_o_funct [5:0] $end
$var wire 16 ; ds_es_o_imm [15:0] $end
$var wire 6 < ds_es_o_opcode [5:0] $end
$var wire 32 = es_load_data [31:0] $end
$var wire 32 > es_ms_alu_value [31:0] $end
$var wire 1 ? es_ms_o_ce $end
$var wire 6 @ es_o_funct [5:0] $end
$var wire 6 A es_o_opcode [5:0] $end
$var wire 1 B es_o_zero $end
$var wire 1 C fs_ds_o_ce $end
$var wire 32 D fs_ds_o_instr [31:0] $end
$var wire 32 E write_back_data [31:0] $end
$scope module is $end
$var wire 1 - f_clk $end
$var wire 1 F f_i_ack $end
$var wire 1 4 f_i_ce $end
$var wire 32 G f_i_instr [31:0] $end
$var wire 1 H f_i_last $end
$var wire 1 6 f_rst $end
$var reg 1 I f_o_ce $end
$var reg 32 J f_o_instr [31:0] $end
$var reg 32 K f_o_pc [31:0] $end
$var reg 1 L f_o_syn $end
$scope module t $end
$var wire 1 - t_clk $end
$var wire 1 M t_i_syn $end
$var wire 1 6 t_rst $end
$var integer 32 N counter [31:0] $end
$var reg 1 O t_o_ack $end
$var reg 32 P t_o_instr [31:0] $end
$var reg 1 Q t_o_last $end
$upscope $end
$upscope $end
$scope module ds $end
$var wire 5 R d_o_addr_rs [4:0] $end
$var wire 5 S d_o_addr_rt [4:0] $end
$var wire 1 - ds_clk $end
$var wire 5 T ds_i_addr_rd [4:0] $end
$var wire 1 C ds_i_ce $end
$var wire 32 U ds_i_data_rd [31:0] $end
$var wire 32 V ds_i_instr [31:0] $end
$var wire 1 2 ds_i_reg_dst $end
$var wire 1 3 ds_i_reg_wr $end
$var wire 1 7 ds_o_ce $end
$var wire 32 W ds_o_data_rs [31:0] $end
$var wire 32 X ds_o_data_rt [31:0] $end
$var wire 6 Y ds_o_funct [5:0] $end
$var wire 16 Z ds_o_imm [15:0] $end
$var wire 6 [ ds_o_opcode [5:0] $end
$var wire 1 6 ds_rst $end
$var wire 5 \ write_register [4:0] $end
$scope module d $end
$var wire 1 - d_clk $end
$var wire 1 C d_i_ce $end
$var wire 6 ] d_i_funct [5:0] $end
$var wire 32 ^ d_i_instr [31:0] $end
$var wire 6 _ d_i_opcode [5:0] $end
$var wire 1 6 d_rst $end
$var wire 1 ` funct_add $end
$var wire 1 a funct_and $end
$var wire 1 b funct_or $end
$var wire 1 c funct_sub $end
$var wire 1 d funct_xor $end
$var wire 1 e op_addi $end
$var wire 1 f op_addiu $end
$var wire 1 g op_andi $end
$var wire 1 h op_branch $end
$var wire 1 i op_load $end
$var wire 1 j op_ori $end
$var wire 1 k op_rtype $end
$var wire 1 l op_slti $end
$var wire 1 m op_sltiu $end
$var wire 1 n op_store $end
$var wire 1 o op_xori $end
$var reg 5 p d_o_addr_rd [4:0] $end
$var reg 5 q d_o_addr_rs [4:0] $end
$var reg 5 r d_o_addr_rt [4:0] $end
$var reg 1 s d_o_ce $end
$var reg 6 t d_o_funct [5:0] $end
$var reg 16 u d_o_imm [15:0] $end
$var reg 6 v d_o_opcode [5:0] $end
$var reg 32 w temp_instr [31:0] $end
$upscope $end
$scope module r $end
$var wire 5 x r_addr_in [4:0] $end
$var wire 5 y r_addr_out1 [4:0] $end
$var wire 5 z r_addr_out2 [4:0] $end
$var wire 1 - r_clk $end
$var wire 32 { r_data_in [31:0] $end
$var wire 32 | r_data_out1 [31:0] $end
$var wire 32 } r_data_out2 [31:0] $end
$var wire 1 6 r_rst $end
$var wire 1 3 r_wr_en $end
$var integer 32 ~ i [31:0] $end
$upscope $end
$upscope $end
$scope module es $end
$var wire 32 !" alu_value [31:0] $end
$var wire 1 "" done $end
$var wire 1 - es_clk $end
$var wire 6 #" es_i_alu_funct [5:0] $end
$var wire 6 $" es_i_alu_op [5:0] $end
$var wire 1 . es_i_alu_src $end
$var wire 1 7 es_i_ce $end
$var wire 32 %" es_i_data_rs [31:0] $end
$var wire 32 &" es_i_data_rt [31:0] $end
$var wire 16 '" es_i_imm [15:0] $end
$var wire 32 (" es_imm [31:0] $end
$var wire 32 )" es_o_data_2 [31:0] $end
$var wire 1 6 es_rst $end
$var reg 4 *" alu_control [3:0] $end
$var reg 32 +" es_o_alu_value [31:0] $end
$var reg 1 ," es_o_ce $end
$var reg 6 -" es_o_funct [5:0] $end
$var reg 6 ." es_o_opcode [5:0] $end
$var reg 1 /" es_o_zero $end
$scope module a $end
$var wire 32 0" a_i_data_rs [31:0] $end
$var wire 32 1" a_i_data_rt [31:0] $end
$var wire 4 2" a_i_funct [3:0] $end
$var wire 1 3" funct_add $end
$var wire 1 4" funct_addu $end
$var wire 1 5" funct_and $end
$var wire 1 6" funct_eq $end
$var wire 1 7" funct_ge $end
$var wire 1 8" funct_geu $end
$var wire 1 9" funct_neq $end
$var wire 1 :" funct_or $end
$var wire 1 ;" funct_sll $end
$var wire 1 <" funct_slt $end
$var wire 1 =" funct_sltu $end
$var wire 1 >" funct_sra $end
$var wire 1 ?" funct_srl $end
$var wire 1 @" funct_sub $end
$var wire 1 A" funct_xor $end
$var reg 32 B" alu_value [31:0] $end
$var reg 1 C" done $end
$upscope $end
$upscope $end
$scope module m $end
$var wire 32 D" alu_value_addr [31:0] $end
$var wire 1 - m_clk $end
$var wire 1 ? m_i_ce $end
$var wire 32 E" m_i_store_data [31:0] $end
$var wire 1 / m_rd_en $end
$var wire 1 6 m_rst $end
$var wire 1 0 m_wr_en $end
$var integer 32 F" i [31:0] $end
$var reg 32 G" m_o_load_data [31:0] $end
$upscope $end
$upscope $end
$scope task reset $end
$var integer 32 H" counter [31:0] $end
$upscope $end
$upscope $end
$enddefinitions $end
#0
$dumpvars
b10 H"
b0 G"
b100000 F"
b0 E"
b0 D"
1C"
b0 B"
0A"
0@"
0?"
0>"
0="
0<"
0;"
0:"
09"
08"
07"
06"
05"
04"
13"
b0 2"
b0 1"
b0 0"
0/"
b0 ."
b0 -"
0,"
b0 +"
b0 *"
b0 )"
b0 ("
b0 '"
b0 &"
b0 %"
b0 $"
b0 #"
1""
b0 !"
b100000 ~
b0 }
b0 |
b0 {
b0 z
b0 y
b0 x
bx w
b0 v
b0 u
b0 t
0s
b0 r
b0 q
b0 p
xo
xn
xm
xl
xk
xj
xi
xh
xg
xf
xe
xd
xc
xb
xa
x`
bx _
b0 ^
bx ]
b0 \
b0 [
b0 Z
b0 Y
b0 X
b0 W
b0 V
b0 U
b0 T
b0 S
b0 R
0Q
b0 P
0O
b0 N
0M
0L
b0 K
b0 J
0I
0H
b0 G
0F
b0 E
b0 D
0C
0B
b0 A
b0 @
0?
b0 >
b0 =
b0 <
b0 ;
b0 :
b0 9
b0 8
07
06
b0 5
x4
x3
x2
x1
x0
x/
x.
0-
0,
x+
x*
x)
x(
x'
x&
x%
0$
b0 #
b0 "
b0 !
$end
#5
b100000 F"
b100000 ~
1$
1-
#10
0$
0-
#15
1,
16
1$
1-
#20
0$
0-
#25
1L
1M
1+
14
1$
1-
#30
0$
0-
#35
1O
1F
b1 N
b10000110000100000100000 P
b10000110000100000100000 G
0(
01
0'
00
0&
0/
0%
0.
1*
13
1)
12
1$
1-
#40
0$
0-
#45
b100 K
b100 !
b100 5
b10000110000100000100000 J
b10000110000100000100000 D
b10000110000100000100000 V
b10000110000100000100000 ^
b0 N
1Q
1H
b101001100010000000100001 P
b101001100010000000100001 G
1$
1-
#50
0$
0-
#55
0O
0F
b1 N
0Q
0H
b10000110000100000100000 P
b10000110000100000100000 G
0L
0M
1I
1C
b1000 K
b1000 !
b1000 5
b101001100010000000100001 J
b101001100010000000100001 D
b101001100010000000100001 V
b101001100010000000100001 ^
1$
1-
#60
0$
0-
#65
1k
0i
0n
0h
0e
0f
0l
0m
0g
0j
0o
b0 _
0`
1c
0a
0b
0d
b100001 ]
b101001100010000000100001 w
0I
0C
1L
1M
1$
1-
#70
0$
0-
#75
1O
1F
b0 N
1Q
1H
b101001100010000000100001 P
b101001100010000000100001 G
1$
1-
#80
0$
0-
#85
0L
0M
1I
1C
b1100 K
b1100 !
b1100 5
0O
0F
b1 N
0Q
0H
b10000110000100000100000 P
b10000110000100000100000 G
1$
1-
#90
0$
0-
#95
b1 *"
b1 2"
03"
1@"
b100 \
b100 x
b110 )"
b110 1"
b11111111111111111111111111111111 B"
b11111111111111111111111111111111 !"
1C"
1""
0I
0C
1L
1M
1s
17
b100001 t
b100001 :
b100001 Y
b100001 #"
b100 p
b100 T
b110 r
b110 9
b110 X
b110 }
b110 &"
b110 E"
b110 S
b110 z
b101 q
b101 8
b101 W
b101 |
b101 %"
b101 0"
b101 R
b101 y
1$
1-
#100
0$
0-
#105
b11111111111111111111111111111111 #
b11111111111111111111111111111111 E
b11111111111111111111111111111111 U
b11111111111111111111111111111111 {
b0 *"
b0 2"
13"
0@"
b0 \
b0 x
b0 )"
b0 1"
1C"
1""
b0 B"
b0 !"
0,"
0?
b100001 -"
b100001 @
b11111111111111111111111111111111 +"
b11111111111111111111111111111111 >
b11111111111111111111111111111111 D"
0s
07
b0 t
b0 :
b0 Y
b0 #"
b0 p
b0 T
b0 r
b0 9
b0 X
b0 }
b0 &"
b0 E"
b0 S
b0 z
b0 q
b0 8
b0 W
b0 |
b0 %"
b0 0"
b0 R
b0 y
1O
1F
b0 N
1Q
1H
b101001100010000000100001 P
b101001100010000000100001 G
1$
1-
#110
0$
0-
#115
b11111111111111111111111111111110 B"
b11111111111111111111111111111110 !"
1C"
1""
b11111111111111111111111111111111 )"
b11111111111111111111111111111111 1"
b0 #
b0 E
b0 U
b0 {
0O
0F
b1 N
0Q
0H
b10000110000100000100000 P
b10000110000100000100000 G
0L
0M
1I
1C
b10000 K
b10000 !
b10000 5
b11111111111111111111111111111111 8
b11111111111111111111111111111111 W
b11111111111111111111111111111111 |
b11111111111111111111111111111111 %"
b11111111111111111111111111111111 0"
b11111111111111111111111111111111 9
b11111111111111111111111111111111 X
b11111111111111111111111111111111 }
b11111111111111111111111111111111 &"
b11111111111111111111111111111111 E"
b0 +"
b0 >
b0 D"
1$
1-
#120
0$
0-
#125
b1 *"
b1 2"
03"
1@"
b100 \
b100 x
b110 )"
b110 1"
1C"
1""
b11111111111111111111111111111111 B"
b11111111111111111111111111111111 !"
1s
17
b100001 t
b100001 :
b100001 Y
b100001 #"
b100 p
b100 T
b110 r
b110 9
b110 X
b110 }
b110 &"
b110 E"
b110 S
b110 z
b101 q
b101 8
b101 W
b101 |
b101 %"
b101 0"
b101 R
b101 y
0I
0C
1L
1M
1$
1-
#130
0$
0-
#135
b0 *"
b0 2"
13"
0@"
b0 \
b0 x
b0 )"
b0 1"
1C"
1""
b0 B"
b0 !"
b11111111111111111111111111111111 #
b11111111111111111111111111111111 E
b11111111111111111111111111111111 U
b11111111111111111111111111111111 {
1O
1F
b0 N
1Q
1H
b101001100010000000100001 P
b101001100010000000100001 G
0s
07
b0 t
b0 :
b0 Y
b0 #"
b0 p
b0 T
b0 r
b0 9
b0 X
b0 }
b0 &"
b0 E"
b0 S
b0 z
b0 q
b0 8
b0 W
b0 |
b0 %"
b0 0"
b0 R
b0 y
0,"
0?
b11111111111111111111111111111111 +"
b11111111111111111111111111111111 >
b11111111111111111111111111111111 D"
1$
1-
#140
0$
0-
#145
b0 #
b0 E
b0 U
b0 {
b11111111111111111111111111111110 B"
b11111111111111111111111111111110 !"
1C"
1""
b11111111111111111111111111111111 )"
b11111111111111111111111111111111 1"
b0 +"
b0 >
b0 D"
b11111111111111111111111111111111 8
b11111111111111111111111111111111 W
b11111111111111111111111111111111 |
b11111111111111111111111111111111 %"
b11111111111111111111111111111111 0"
b11111111111111111111111111111111 9
b11111111111111111111111111111111 X
b11111111111111111111111111111111 }
b11111111111111111111111111111111 &"
b11111111111111111111111111111111 E"
0L
0M
1I
1C
b10100 K
b10100 !
b10100 5
0O
0F
b1 N
0Q
0H
b10000110000100000100000 P
b10000110000100000100000 G
1$
1-
#150
0$
0-
#155
b1 *"
b1 2"
03"
1@"
b100 \
b100 x
1C"
1""
b11111111111111111111111111111111 B"
b11111111111111111111111111111111 !"
b110 )"
b110 1"
0I
0C
1L
1M
1s
17
b100001 t
b100001 :
b100001 Y
b100001 #"
b100 p
b100 T
b110 r
b110 S
b110 z
b101 q
b101 R
b101 y
b101 8
b101 W
b101 |
b101 %"
b101 0"
b110 9
b110 X
b110 }
b110 &"
b110 E"
1$
1-
#160
0$
0-
#165
b11111111111111111111111111111111 #
b11111111111111111111111111111111 E
b11111111111111111111111111111111 U
b11111111111111111111111111111111 {
b0 *"
b0 2"
13"
0@"
b0 \
b0 x
b0 )"
b0 1"
1C"
1""
b0 B"
b0 !"
0,"
0?
b11111111111111111111111111111111 +"
b11111111111111111111111111111111 >
b11111111111111111111111111111111 D"
0s
07
b0 t
b0 :
b0 Y
b0 #"
b0 p
b0 T
b0 r
b0 9
b0 X
b0 }
b0 &"
b0 E"
b0 S
b0 z
b0 q
b0 8
b0 W
b0 |
b0 %"
b0 0"
b0 R
b0 y
1O
1F
b0 N
1Q
1H
b101001100010000000100001 P
b101001100010000000100001 G
1$
1-
#170
0$
0-
#175
b11111111111111111111111111111110 B"
b11111111111111111111111111111110 !"
1C"
1""
b11111111111111111111111111111111 )"
b11111111111111111111111111111111 1"
b0 #
b0 E
b0 U
b0 {
0O
0F
b1 N
0Q
0H
b10000110000100000100000 P
b10000110000100000100000 G
0L
0M
1I
1C
b11000 K
b11000 !
b11000 5
b11111111111111111111111111111111 8
b11111111111111111111111111111111 W
b11111111111111111111111111111111 |
b11111111111111111111111111111111 %"
b11111111111111111111111111111111 0"
b11111111111111111111111111111111 9
b11111111111111111111111111111111 X
b11111111111111111111111111111111 }
b11111111111111111111111111111111 &"
b11111111111111111111111111111111 E"
b0 +"
b0 >
b0 D"
1$
1-
#180
0$
0-
#185
b1 *"
b1 2"
03"
1@"
b100 \
b100 x
b110 )"
b110 1"
1C"
1""
b11111111111111111111111111111111 B"
b11111111111111111111111111111111 !"
1s
17
b100001 t
b100001 :
b100001 Y
b100001 #"
b100 p
b100 T
b110 r
b110 9
b110 X
b110 }
b110 &"
b110 E"
b110 S
b110 z
b101 q
b101 8
b101 W
b101 |
b101 %"
b101 0"
b101 R
b101 y
0I
0C
1L
1M
1$
1-
#190
0$
0-
#195
b0 *"
b0 2"
13"
0@"
b0 \
b0 x
b0 )"
b0 1"
1C"
1""
b0 B"
b0 !"
b11111111111111111111111111111111 #
b11111111111111111111111111111111 E
b11111111111111111111111111111111 U
b11111111111111111111111111111111 {
1O
1F
b0 N
1Q
1H
b101001100010000000100001 P
b101001100010000000100001 G
0s
07
b0 t
b0 :
b0 Y
b0 #"
b0 p
b0 T
b0 r
b0 9
b0 X
b0 }
b0 &"
b0 E"
b0 S
b0 z
b0 q
b0 8
b0 W
b0 |
b0 %"
b0 0"
b0 R
b0 y
0,"
0?
b11111111111111111111111111111111 +"
b11111111111111111111111111111111 >
b11111111111111111111111111111111 D"
1$
1-
#200
0$
0-
#205
b0 #
b0 E
b0 U
b0 {
b11111111111111111111111111111110 B"
b11111111111111111111111111111110 !"
1C"
1""
b11111111111111111111111111111111 )"
b11111111111111111111111111111111 1"
b0 +"
b0 >
b0 D"
b11111111111111111111111111111111 8
b11111111111111111111111111111111 W
b11111111111111111111111111111111 |
b11111111111111111111111111111111 %"
b11111111111111111111111111111111 0"
b11111111111111111111111111111111 9
b11111111111111111111111111111111 X
b11111111111111111111111111111111 }
b11111111111111111111111111111111 &"
b11111111111111111111111111111111 E"
0L
0M
1I
1C
b11100 K
b11100 !
b11100 5
0O
0F
b1 N
0Q
0H
b10000110000100000100000 P
b10000110000100000100000 G
1$
1-
#210
0$
0-
#215
b1 *"
b1 2"
03"
1@"
b100 \
b100 x
1C"
1""
b11111111111111111111111111111111 B"
b11111111111111111111111111111111 !"
b110 )"
b110 1"
0I
0C
1L
1M
1s
17
b100001 t
b100001 :
b100001 Y
b100001 #"
b100 p
b100 T
b110 r
b110 S
b110 z
b101 q
b101 R
b101 y
b101 8
b101 W
b101 |
b101 %"
b101 0"
b110 9
b110 X
b110 }
b110 &"
b110 E"
1$
1-
#220
0$
0-
#225
b11111111111111111111111111111111 #
b11111111111111111111111111111111 E
b11111111111111111111111111111111 U
b11111111111111111111111111111111 {
b0 *"
b0 2"
13"
0@"
b0 \
b0 x
b0 )"
b0 1"
1C"
1""
b0 B"
b0 !"
0,"
0?
b11111111111111111111111111111111 +"
b11111111111111111111111111111111 >
b11111111111111111111111111111111 D"
0s
07
b0 t
b0 :
b0 Y
b0 #"
b0 p
b0 T
b0 r
b0 9
b0 X
b0 }
b0 &"
b0 E"
b0 S
b0 z
b0 q
b0 8
b0 W
b0 |
b0 %"
b0 0"
b0 R
b0 y
1O
1F
b0 N
1Q
1H
b101001100010000000100001 P
b101001100010000000100001 G
1$
1-
#230
0$
0-
#235
b11111111111111111111111111111110 B"
b11111111111111111111111111111110 !"
1C"
1""
b11111111111111111111111111111111 )"
b11111111111111111111111111111111 1"
b0 #
b0 E
b0 U
b0 {
0O
0F
b1 N
0Q
0H
b10000110000100000100000 P
b10000110000100000100000 G
0L
0M
1I
1C
b100000 K
b100000 !
b100000 5
b11111111111111111111111111111111 8
b11111111111111111111111111111111 W
b11111111111111111111111111111111 |
b11111111111111111111111111111111 %"
b11111111111111111111111111111111 0"
b11111111111111111111111111111111 9
b11111111111111111111111111111111 X
b11111111111111111111111111111111 }
b11111111111111111111111111111111 &"
b11111111111111111111111111111111 E"
b0 +"
b0 >
b0 D"
1$
1-
#240
0$
0-
#245
b1 *"
b1 2"
03"
1@"
b100 \
b100 x
b110 )"
b110 1"
1C"
1""
b11111111111111111111111111111111 B"
b11111111111111111111111111111111 !"
1s
17
b100001 t
b100001 :
b100001 Y
b100001 #"
b100 p
b100 T
b110 r
b110 9
b110 X
b110 }
b110 &"
b110 E"
b110 S
b110 z
b101 q
b101 8
b101 W
b101 |
b101 %"
b101 0"
b101 R
b101 y
0I
0C
1L
1M
1$
1-
#250
0$
0-
#255
b0 *"
b0 2"
13"
0@"
b0 \
b0 x
b0 )"
b0 1"
1C"
1""
b0 B"
b0 !"
b11111111111111111111111111111111 #
b11111111111111111111111111111111 E
b11111111111111111111111111111111 U
b11111111111111111111111111111111 {
1O
1F
b0 N
1Q
1H
b101001100010000000100001 P
b101001100010000000100001 G
0s
07
b0 t
b0 :
b0 Y
b0 #"
b0 p
b0 T
b0 r
b0 9
b0 X
b0 }
b0 &"
b0 E"
b0 S
b0 z
b0 q
b0 8
b0 W
b0 |
b0 %"
b0 0"
b0 R
b0 y
0,"
0?
b11111111111111111111111111111111 +"
b11111111111111111111111111111111 >
b11111111111111111111111111111111 D"
1$
1-
#260
0$
0-
#265
b0 #
b0 E
b0 U
b0 {
b11111111111111111111111111111110 B"
b11111111111111111111111111111110 !"
1C"
1""
b11111111111111111111111111111111 )"
b11111111111111111111111111111111 1"
b0 +"
b0 >
b0 D"
b11111111111111111111111111111111 8
b11111111111111111111111111111111 W
b11111111111111111111111111111111 |
b11111111111111111111111111111111 %"
b11111111111111111111111111111111 0"
b11111111111111111111111111111111 9
b11111111111111111111111111111111 X
b11111111111111111111111111111111 }
b11111111111111111111111111111111 &"
b11111111111111111111111111111111 E"
0L
0M
1I
1C
b100100 K
b100100 !
b100100 5
0O
0F
b1 N
0Q
0H
b10000110000100000100000 P
b10000110000100000100000 G
1$
1-
#270
0$
0-
#275
b1 *"
b1 2"
03"
1@"
b100 \
b100 x
1C"
1""
b11111111111111111111111111111111 B"
b11111111111111111111111111111111 !"
b110 )"
b110 1"
0I
0C
1L
1M
1s
17
b100001 t
b100001 :
b100001 Y
b100001 #"
b100 p
b100 T
b110 r
b110 S
b110 z
b101 q
b101 R
b101 y
b101 8
b101 W
b101 |
b101 %"
b101 0"
b110 9
b110 X
b110 }
b110 &"
b110 E"
1$
1-
#280
0$
0-
#285
b11111111111111111111111111111111 #
b11111111111111111111111111111111 E
b11111111111111111111111111111111 U
b11111111111111111111111111111111 {
b0 *"
b0 2"
13"
0@"
b0 \
b0 x
b0 )"
b0 1"
1C"
1""
b0 B"
b0 !"
0,"
0?
b11111111111111111111111111111111 +"
b11111111111111111111111111111111 >
b11111111111111111111111111111111 D"
0s
07
b0 t
b0 :
b0 Y
b0 #"
b0 p
b0 T
b0 r
b0 9
b0 X
b0 }
b0 &"
b0 E"
b0 S
b0 z
b0 q
b0 8
b0 W
b0 |
b0 %"
b0 0"
b0 R
b0 y
1O
1F
b0 N
1Q
1H
b101001100010000000100001 P
b101001100010000000100001 G
1$
1-
#290
0$
0-
#295
b11111111111111111111111111111110 B"
b11111111111111111111111111111110 !"
1C"
1""
b11111111111111111111111111111111 )"
b11111111111111111111111111111111 1"
b0 #
b0 E
b0 U
b0 {
0O
0F
b1 N
0Q
0H
b10000110000100000100000 P
b10000110000100000100000 G
0L
0M
1I
1C
b101000 K
b101000 !
b101000 5
b11111111111111111111111111111111 8
b11111111111111111111111111111111 W
b11111111111111111111111111111111 |
b11111111111111111111111111111111 %"
b11111111111111111111111111111111 0"
b11111111111111111111111111111111 9
b11111111111111111111111111111111 X
b11111111111111111111111111111111 }
b11111111111111111111111111111111 &"
b11111111111111111111111111111111 E"
b0 +"
b0 >
b0 D"
1$
1-
#300
0$
0-
#305
b1 *"
b1 2"
03"
1@"
b100 \
b100 x
b110 )"
b110 1"
1C"
1""
b11111111111111111111111111111111 B"
b11111111111111111111111111111111 !"
1s
17
b100001 t
b100001 :
b100001 Y
b100001 #"
b100 p
b100 T
b110 r
b110 9
b110 X
b110 }
b110 &"
b110 E"
b110 S
b110 z
b101 q
b101 8
b101 W
b101 |
b101 %"
b101 0"
b101 R
b101 y
0I
0C
1L
1M
1$
1-
#310
0$
0-
#315
b0 *"
b0 2"
13"
0@"
b0 \
b0 x
b0 )"
b0 1"
1C"
1""
b0 B"
b0 !"
b11111111111111111111111111111111 #
b11111111111111111111111111111111 E
b11111111111111111111111111111111 U
b11111111111111111111111111111111 {
1O
1F
b0 N
1Q
1H
b101001100010000000100001 P
b101001100010000000100001 G
0s
07
b0 t
b0 :
b0 Y
b0 #"
b0 p
b0 T
b0 r
b0 9
b0 X
b0 }
b0 &"
b0 E"
b0 S
b0 z
b0 q
b0 8
b0 W
b0 |
b0 %"
b0 0"
b0 R
b0 y
0,"
0?
b11111111111111111111111111111111 +"
b11111111111111111111111111111111 >
b11111111111111111111111111111111 D"
1$
1-
#320
0$
0-
#325
b0 #
b0 E
b0 U
b0 {
b11111111111111111111111111111110 B"
b11111111111111111111111111111110 !"
1C"
1""
b11111111111111111111111111111111 )"
b11111111111111111111111111111111 1"
b0 +"
b0 >
b0 D"
b11111111111111111111111111111111 8
b11111111111111111111111111111111 W
b11111111111111111111111111111111 |
b11111111111111111111111111111111 %"
b11111111111111111111111111111111 0"
b11111111111111111111111111111111 9
b11111111111111111111111111111111 X
b11111111111111111111111111111111 }
b11111111111111111111111111111111 &"
b11111111111111111111111111111111 E"
0L
0M
1I
1C
b101100 K
b101100 !
b101100 5
0O
0F
b1 N
0Q
0H
b10000110000100000100000 P
b10000110000100000100000 G
1$
1-
#330
0$
0-
#335
b1 *"
b1 2"
03"
1@"
b100 \
b100 x
1C"
1""
b11111111111111111111111111111111 B"
b11111111111111111111111111111111 !"
b110 )"
b110 1"
0I
0C
1L
1M
1s
17
b100001 t
b100001 :
b100001 Y
b100001 #"
b100 p
b100 T
b110 r
b110 S
b110 z
b101 q
b101 R
b101 y
b101 8
b101 W
b101 |
b101 %"
b101 0"
b110 9
b110 X
b110 }
b110 &"
b110 E"
1$
1-
#340
0$
0-
#345
b11111111111111111111111111111111 #
b11111111111111111111111111111111 E
b11111111111111111111111111111111 U
b11111111111111111111111111111111 {
b0 *"
b0 2"
13"
0@"
b0 \
b0 x
b0 )"
b0 1"
1C"
1""
b0 B"
b0 !"
0,"
0?
b11111111111111111111111111111111 +"
b11111111111111111111111111111111 >
b11111111111111111111111111111111 D"
0s
07
b0 t
b0 :
b0 Y
b0 #"
b0 p
b0 T
b0 r
b0 9
b0 X
b0 }
b0 &"
b0 E"
b0 S
b0 z
b0 q
b0 8
b0 W
b0 |
b0 %"
b0 0"
b0 R
b0 y
1O
1F
b0 N
1Q
1H
b101001100010000000100001 P
b101001100010000000100001 G
1$
1-
#350
0$
0-
#355
b11111111111111111111111111111110 B"
b11111111111111111111111111111110 !"
1C"
1""
b11111111111111111111111111111111 )"
b11111111111111111111111111111111 1"
b0 #
b0 E
b0 U
b0 {
0O
0F
b1 N
0Q
0H
b10000110000100000100000 P
b10000110000100000100000 G
0L
0M
1I
1C
b110000 K
b110000 !
b110000 5
b11111111111111111111111111111111 8
b11111111111111111111111111111111 W
b11111111111111111111111111111111 |
b11111111111111111111111111111111 %"
b11111111111111111111111111111111 0"
b11111111111111111111111111111111 9
b11111111111111111111111111111111 X
b11111111111111111111111111111111 }
b11111111111111111111111111111111 &"
b11111111111111111111111111111111 E"
b0 +"
b0 >
b0 D"
1$
1-
#360
0$
0-
#365
b1 *"
b1 2"
03"
1@"
b100 \
b100 x
b110 )"
b110 1"
1C"
1""
b11111111111111111111111111111111 B"
b11111111111111111111111111111111 !"
1s
17
b100001 t
b100001 :
b100001 Y
b100001 #"
b100 p
b100 T
b110 r
b110 9
b110 X
b110 }
b110 &"
b110 E"
b110 S
b110 z
b101 q
b101 8
b101 W
b101 |
b101 %"
b101 0"
b101 R
b101 y
0I
0C
1L
1M
1$
1-
#370
0$
0-
#375
b0 *"
b0 2"
13"
0@"
b0 \
b0 x
b0 )"
b0 1"
1C"
1""
b0 B"
b0 !"
b11111111111111111111111111111111 #
b11111111111111111111111111111111 E
b11111111111111111111111111111111 U
b11111111111111111111111111111111 {
1O
1F
b0 N
1Q
1H
b101001100010000000100001 P
b101001100010000000100001 G
0s
07
b0 t
b0 :
b0 Y
b0 #"
b0 p
b0 T
b0 r
b0 9
b0 X
b0 }
b0 &"
b0 E"
b0 S
b0 z
b0 q
b0 8
b0 W
b0 |
b0 %"
b0 0"
b0 R
b0 y
0,"
0?
b11111111111111111111111111111111 +"
b11111111111111111111111111111111 >
b11111111111111111111111111111111 D"
1$
1-
#380
0$
0-
#385
b0 #
b0 E
b0 U
b0 {
b11111111111111111111111111111110 B"
b11111111111111111111111111111110 !"
1C"
1""
b11111111111111111111111111111111 )"
b11111111111111111111111111111111 1"
b0 +"
b0 >
b0 D"
b11111111111111111111111111111111 8
b11111111111111111111111111111111 W
b11111111111111111111111111111111 |
b11111111111111111111111111111111 %"
b11111111111111111111111111111111 0"
b11111111111111111111111111111111 9
b11111111111111111111111111111111 X
b11111111111111111111111111111111 }
b11111111111111111111111111111111 &"
b11111111111111111111111111111111 E"
0L
0M
1I
1C
b110100 K
b110100 !
b110100 5
0O
0F
b1 N
0Q
0H
b10000110000100000100000 P
b10000110000100000100000 G
1$
1-
#390
0$
0-
#395
b1 *"
b1 2"
03"
1@"
b100 \
b100 x
1C"
1""
b11111111111111111111111111111111 B"
b11111111111111111111111111111111 !"
b110 )"
b110 1"
0I
0C
1L
1M
1s
17
b100001 t
b100001 :
b100001 Y
b100001 #"
b100 p
b100 T
b110 r
b110 S
b110 z
b101 q
b101 R
b101 y
b101 8
b101 W
b101 |
b101 %"
b101 0"
b110 9
b110 X
b110 }
b110 &"
b110 E"
1$
1-
#400
0$
0-
#405
b11111111111111111111111111111111 #
b11111111111111111111111111111111 E
b11111111111111111111111111111111 U
b11111111111111111111111111111111 {
b0 *"
b0 2"
13"
0@"
b0 \
b0 x
b0 )"
b0 1"
1C"
1""
b0 B"
b0 !"
0,"
0?
b11111111111111111111111111111111 +"
b11111111111111111111111111111111 >
b11111111111111111111111111111111 D"
0s
07
b0 t
b0 :
b0 Y
b0 #"
b0 p
b0 T
b0 r
b0 9
b0 X
b0 }
b0 &"
b0 E"
b0 S
b0 z
b0 q
b0 8
b0 W
b0 |
b0 %"
b0 0"
b0 R
b0 y
1O
1F
b0 N
1Q
1H
b101001100010000000100001 P
b101001100010000000100001 G
1$
1-
#410
0$
0-
