waveform/datapath.vcd
$date
	Sun Oct 05 22:47:55 2025
$end
$version
	Icarus Verilog
$end
$timescale
	1s
$end
$scope module tb $end
$var wire 6 ! ds_es_o_opcode [5:0] $end
$var wire 32 " es_is_o_pc [31:0] $end
$var wire 32 # write_back_data [31:0] $end
$var reg 1 $ d_clk $end
$var reg 1 % d_i_ALUSrc $end
$var reg 1 & d_i_Branch $end
$var reg 1 ' d_i_MemRead $end
$var reg 1 ( d_i_MemWrite $end
$var reg 1 ) d_i_MemtoReg $end
$var reg 1 * d_i_RegDst $end
$var reg 1 + d_i_RegWrite $end
$var reg 1 , d_i_ce $end
$var reg 1 - d_rst $end
$scope module d $end
$var wire 1 . d_clk $end
$var wire 1 / d_i_ALUSrc $end
$var wire 1 0 d_i_Branch $end
$var wire 1 1 d_i_MemRead $end
$var wire 1 2 d_i_MemWrite $end
$var wire 1 3 d_i_MemtoReg $end
$var wire 1 4 d_i_RegDst $end
$var wire 1 5 d_i_RegWrite $end
$var wire 1 6 d_i_ce $end
$var wire 1 7 d_rst $end
$var wire 1 8 ds_es_o_ce $end
$var wire 32 9 ds_es_o_data_rs [31:0] $end
$var wire 32 : ds_es_o_data_rt [31:0] $end
$var wire 6 ; ds_es_o_funct [5:0] $end
$var wire 16 < ds_es_o_imm [15:0] $end
$var wire 6 = ds_es_o_opcode [5:0] $end
$var wire 1 > es_is_change_pc $end
$var wire 32 ? es_is_o_pc [31:0] $end
$var wire 32 @ es_load_data [31:0] $end
$var wire 32 A es_ms_alu_value [31:0] $end
$var wire 1 B es_ms_o_ce $end
$var wire 6 C es_o_funct [5:0] $end
$var wire 6 D es_o_opcode [5:0] $end
$var wire 1 E es_o_zero $end
$var wire 1 F fs_ds_o_ce $end
$var wire 32 G fs_ds_o_instr [31:0] $end
$var wire 32 H fs_es_o_pc [31:0] $end
$var wire 32 I write_back_data [31:0] $end
$scope module is $end
$var wire 1 . f_clk $end
$var wire 1 J f_i_ack $end
$var wire 1 6 f_i_ce $end
$var wire 1 > f_i_change_pc $end
$var wire 32 K f_i_instr [31:0] $end
$var wire 1 L f_i_last $end
$var wire 32 M f_i_pc [31:0] $end
$var wire 1 7 f_rst $end
$var reg 1 N f_o_ce $end
$var reg 32 O f_o_instr [31:0] $end
$var reg 32 P f_o_pc [31:0] $end
$var reg 1 Q f_o_syn $end
$scope module t $end
$var wire 1 . t_clk $end
$var wire 1 R t_i_syn $end
$var wire 1 7 t_rst $end
$var integer 32 S counter [31:0] $end
$var reg 1 T t_o_ack $end
$var reg 32 U t_o_instr [31:0] $end
$var reg 1 V t_o_last $end
$upscope $end
$upscope $end
$scope module ds $end
$var wire 5 W d_o_addr_rs [4:0] $end
$var wire 5 X d_o_addr_rt [4:0] $end
$var wire 1 . ds_clk $end
$var wire 5 Y ds_i_addr_rd [4:0] $end
$var wire 1 F ds_i_ce $end
$var wire 32 Z ds_i_data_rd [31:0] $end
$var wire 32 [ ds_i_instr [31:0] $end
$var wire 1 4 ds_i_reg_dst $end
$var wire 1 5 ds_i_reg_wr $end
$var wire 1 8 ds_o_ce $end
$var wire 32 \ ds_o_data_rs [31:0] $end
$var wire 32 ] ds_o_data_rt [31:0] $end
$var wire 6 ^ ds_o_funct [5:0] $end
$var wire 16 _ ds_o_imm [15:0] $end
$var wire 6 ` ds_o_opcode [5:0] $end
$var wire 1 7 ds_rst $end
$var wire 5 a write_register [4:0] $end
$scope module d $end
$var wire 1 . d_clk $end
$var wire 1 F d_i_ce $end
$var wire 6 b d_i_funct [5:0] $end
$var wire 32 c d_i_instr [31:0] $end
$var wire 6 d d_i_opcode [5:0] $end
$var wire 1 7 d_rst $end
$var wire 1 e funct_add $end
$var wire 1 f funct_and $end
$var wire 1 g funct_or $end
$var wire 1 h funct_sub $end
$var wire 1 i funct_xor $end
$var wire 1 j op_addi $end
$var wire 1 k op_addiu $end
$var wire 1 l op_andi $end
$var wire 1 m op_branch $end
$var wire 1 n op_load $end
$var wire 1 o op_ori $end
$var wire 1 p op_rtype $end
$var wire 1 q op_slti $end
$var wire 1 r op_sltiu $end
$var wire 1 s op_store $end
$var wire 1 t op_xori $end
$var reg 5 u d_o_addr_rd [4:0] $end
$var reg 5 v d_o_addr_rs [4:0] $end
$var reg 5 w d_o_addr_rt [4:0] $end
$var reg 1 x d_o_ce $end
$var reg 6 y d_o_funct [5:0] $end
$var reg 16 z d_o_imm [15:0] $end
$var reg 6 { d_o_opcode [5:0] $end
$var reg 32 | temp_instr [31:0] $end
$upscope $end
$scope module r $end
$var wire 5 } r_addr_in [4:0] $end
$var wire 5 ~ r_addr_out1 [4:0] $end
$var wire 5 !" r_addr_out2 [4:0] $end
$var wire 1 . r_clk $end
$var wire 32 "" r_data_in [31:0] $end
$var wire 32 #" r_data_out1 [31:0] $end
$var wire 32 $" r_data_out2 [31:0] $end
$var wire 1 7 r_rst $end
$var wire 1 5 r_wr_en $end
$var integer 32 %" i [31:0] $end
$upscope $end
$upscope $end
$scope module es $end
$var wire 32 &" alu_pc [31:0] $end
$var wire 32 '" alu_value [31:0] $end
$var wire 1 (" done $end
$var wire 1 . es_clk $end
$var wire 6 )" es_i_alu_funct [5:0] $end
$var wire 6 *" es_i_alu_op [5:0] $end
$var wire 1 / es_i_alu_src $end
$var wire 1 0 es_i_branch $end
$var wire 1 8 es_i_ce $end
$var wire 32 +" es_i_data_rs [31:0] $end
$var wire 32 ," es_i_data_rt [31:0] $end
$var wire 16 -" es_i_imm [15:0] $end
$var wire 32 ." es_i_pc [31:0] $end
$var wire 1 7 es_rst $end
$var wire 1 /" temp_zero $end
$var reg 5 0" alu_control [4:0] $end
$var reg 32 1" es_o_alu_pc [31:0] $end
$var reg 32 2" es_o_alu_value [31:0] $end
$var reg 1 3" es_o_ce $end
$var reg 1 4" es_o_change_pc $end
$var reg 6 5" es_o_funct [5:0] $end
$var reg 6 6" es_o_opcode [5:0] $end
$var reg 1 7" es_o_zero $end
$scope module a $end
$var wire 1 / a_i_alu_src $end
$var wire 32 8" a_i_data_rs [31:0] $end
$var wire 32 9" a_i_data_rt [31:0] $end
$var wire 5 :" a_i_funct [4:0] $end
$var wire 16 ;" a_i_imm [15:0] $end
$var wire 32 <" a_i_pc [31:0] $end
$var wire 32 =" a_imm [31:0] $end
$var wire 32 >" a_o_data_2 [31:0] $end
$var wire 1 ?" funct_add $end
$var wire 1 @" funct_addu $end
$var wire 1 A" funct_and $end
$var wire 1 B" funct_beq $end
$var wire 1 C" funct_bne $end
$var wire 1 D" funct_eq $end
$var wire 1 E" funct_ge $end
$var wire 1 F" funct_geu $end
$var wire 1 G" funct_neq $end
$var wire 1 H" funct_or $end
$var wire 1 I" funct_sll $end
$var wire 1 J" funct_slt $end
$var wire 1 K" funct_sltu $end
$var wire 1 L" funct_sra $end
$var wire 1 M" funct_srl $end
$var wire 1 N" funct_sub $end
$var wire 1 O" funct_xor $end
$var reg 32 P" alu_pc [31:0] $end
$var reg 32 Q" alu_value [31:0] $end
$var reg 1 R" done $end
$upscope $end
$upscope $end
$scope module m $end
$var wire 32 S" alu_value_addr [31:0] $end
$var wire 1 . m_clk $end
$var wire 1 B m_i_ce $end
$var wire 32 T" m_i_store_data [31:0] $end
$var wire 1 1 m_rd_en $end
$var wire 1 7 m_rst $end
$var wire 1 2 m_wr_en $end
$var integer 32 U" i [31:0] $end
$var reg 32 V" m_o_load_data [31:0] $end
$upscope $end
$upscope $end
$scope task reset $end
$var integer 32 W" counter [31:0] $end
$upscope $end
$upscope $end
$enddefinitions $end
#0
$dumpvars
b10 W"
b0 V"
b100000 U"
b0 T"
b0 S"
1R"
b0 Q"
b0 P"
0O"
0N"
0M"
0L"
0K"
0J"
0I"
0H"
0G"
0F"
0E"
0D"
0C"
0B"
0A"
0@"
1?"
b0 >"
b0 ="
b0 <"
b0 ;"
b0 :"
b0 9"
b0 8"
07"
b0 6"
b0 5"
04"
03"
b0 2"
b0 1"
b0 0"
1/"
b0 ."
b0 -"
b0 ,"
b0 +"
b0 *"
b0 )"
1("
b0 '"
b0 &"
b100000 %"
b0 $"
b0 #"
b0 ""
b0 !"
b0 ~
b0 }
bx |
b0 {
b0 z
b0 y
0x
b0 w
b0 v
b0 u
xt
xs
xr
xq
xp
xo
xn
xm
xl
xk
xj
xi
xh
xg
xf
xe
bx d
b0 c
bx b
b0 a
b0 `
b0 _
b0 ^
b0 ]
b0 \
b0 [
b0 Z
b0 Y
b0 X
b0 W
0V
b0 U
0T
b0 S
0R
0Q
b0 P
b0 O
0N
b0 M
0L
b0 K
0J
b0 I
b0 H
b0 G
0F
0E
b0 D
b0 C
0B
b0 A
b0 @
b0 ?
0>
b0 =
b0 <
b0 ;
b0 :
b0 9
08
07
x6
x5
x4
x3
x2
x1
x0
x/
0.
0-
x,
x+
x*
x)
x(
x'
x&
x%
0$
b0 #
b0 "
b0 !
$end
#5
b100000 U"
b100000 %"
1$
1.
#10
0$
0.
#15
1-
17
1$
1.
#20
0$
0.
#25
1Q
1R
1,
16
1$
1.
#30
0$
0.
#35
1T
1J
b1 S
b10000110000100000100000 U
b10000110000100000100000 K
0)
03
0(
02
0'
01
0%
0/
1+
15
1*
14
1$
1.
#40
0$
0.
#45
1R"
1("
1N
1F
b100 P
b100 H
b100 ."
b100 <"
b10000110000100000100000 O
b10000110000100000100000 G
b10000110000100000100000 [
b10000110000100000100000 c
b10 S
b101001100010000000100001 U
b101001100010000000100001 K
1$
1.
#50
0$
0.
#55
1R"
1("
1p
0n
0s
0m
0j
0k
0q
0r
0l
0o
0t
b0 d
1e
0h
0f
0g
0i
b100000 b
b11 S
b1000010010011100000100010 U
b1000010010011100000100010 K
b1000 P
b1000 H
b1000 ."
b1000 <"
b101001100010000000100001 O
b101001100010000000100001 G
b101001100010000000100001 [
b101001100010000000100001 c
b10000110000100000100000 |
1$
1.
#60
0$
0.
#65
0/"
b1 a
b1 }
b11 >"
0e
1h
b100001 b
b101 Q"
b101 '"
1R"
1("
1x
18
b100000 y
b100000 ;
b100000 ^
b100000 )"
b1 u
b1 Y
b11 w
b11 :
b11 ]
b11 $"
b11 ,"
b11 9"
b11 T"
b11 X
b11 !"
b10 v
b10 9
b10 \
b10 #"
b10 +"
b10 8"
b10 W
b10 ~
b101001100010000000100001 |
b1100 P
b1100 H
b1100 ."
b1100 <"
b1000010010011100000100010 O
b1000010010011100000100010 G
b1000010010011100000100010 [
b1000010010011100000100010 c
b100 S
b1000100101000000100011 U
b1000100101000000100011 K
1$
1.
#70
0$
0.
#75
b1 0"
b1 :"
0?"
1N"
b100 a
b100 }
b110 >"
1R"
1("
b11111111111111111111111111111111 Q"
b11111111111111111111111111111111 '"
0h
1f
b100010 b
b101 #
b101 I
b101 Z
b101 ""
b0 S
1V
1L
b10000010000010000000001100100 U
b10000010000010000000001100100 K
b10000 P
b10000 H
b10000 ."
b10000 <"
b1000100101000000100011 O
b1000100101000000100011 G
b1000100101000000100011 [
b1000100101000000100011 c
b100001 y
b100001 ;
b100001 ^
b100001 )"
b100 u
b100 Y
b110 w
b110 :
b110 ]
b110 $"
b110 ,"
b110 9"
b110 T"
b110 X
b110 !"
b101 v
b101 9
b101 \
b101 #"
b101 +"
b101 8"
b101 W
b101 ~
b1000010010011100000100010 |
13"
1B
b100000 5"
b100000 C
b101 2"
b101 A
b101 S"
1$
1.
#80
0$
0.
#85
b11111111111111111111111111111111 #
b11111111111111111111111111111111 I
b11111111111111111111111111111111 Z
b11111111111111111111111111111111 ""
1A"
b10 0"
b10 :"
0?"
0N"
b111 a
b111 }
b1001 >"
0f
1g
b100011 b
1R"
1("
b1000 Q"
b1000 '"
b100001 5"
b100001 C
b11111111111111111111111111111111 2"
b11111111111111111111111111111111 A
b11111111111111111111111111111111 S"
b100010 y
b100010 ;
b100010 ^
b100010 )"
b111 u
b111 Y
b1001 w
b1001 :
b1001 ]
b1001 $"
b1001 ,"
b1001 9"
b1001 T"
b1001 X
b1001 !"
b1000 v
b1000 9
b1000 \
b1000 #"
b1000 +"
b1000 8"
b1000 W
b1000 ~
b1000100101000000100011 |
0Q
0R
b10100 P
b10100 H
b10100 ."
b10100 <"
b10000010000010000000001100100 O
b10000010000010000000001100100 G
b10000010000010000000001100100 [
b10000010000010000000001100100 c
0T
0J
b1 S
0V
0L
b10000110000100000100000 U
b10000110000100000100000 K
1$
1.
#90
0$
0.
#95
0/"
1H"
b11 0"
b11 :"
0?"
0A"
b1010 a
b1010 }
b10 >"
1R"
1("
b10 Q"
b10 '"
0p
1j
b100 d
0g
1i
b100100 b
b1000 #
b1000 I
b1000 Z
b1000 ""
1Q
1R
b100011 y
b100011 ;
b100011 ^
b100011 )"
b1010 u
b1010 Y
b10 w
b10 :
b10 ]
b10 $"
b10 ,"
b10 9"
b10 T"
b10 X
b10 !"
b1 v
b0 9
b0 \
b0 #"
b0 +"
b0 8"
b1 W
b1 ~
b10000010000010000000001100100 |
b100010 5"
b100010 C
b1000 2"
b1000 A
b1000 S"
1$
1.
#100
0$
0.
#105
b10 #
b10 I
b10 Z
b10 ""
b0 0"
b0 :"
1?"
0H"
b0 a
b0 }
b0 >"
1R"
1("
b10 Q"
b10 '"
b100011 5"
b100011 C
b10 2"
b10 A
b10 S"
b1100100 z
b1100100 ="
b1100100 <
b1100100 _
b1100100 -"
b1100100 ;"
b0 y
b0 ;
b0 ^
b0 )"
b100 {
b100 !
b100 =
b100 `
b100 *"
b0 u
b0 Y
b1 w
b0 :
b0 ]
b0 $"
b0 ,"
b0 9"
b0 T"
b1 X
b1 !"
b10 v
b10 9
b10 \
b10 #"
b10 +"
b10 8"
b10 W
b10 ~
1T
1J
b10 S
b101001100010000000100001 U
b101001100010000000100001 K
1$
1.
#110
0$
0.
#115
1R"
1("
b10 Q"
b10 '"
b11 S
b1000010010011100000100010 U
b1000010010011100000100010 K
b11000 P
b11000 H
b11000 ."
b11000 <"
b101001100010000000100001 O
b101001100010000000100001 G
b101001100010000000100001 [
b101001100010000000100001 c
b0 5"
b0 C
b100 6"
b100 D
1$
1.
#120
0$
0.
#125
1p
0j
b0 d
1h
0i
b100001 b
1R"
1("
b10 Q"
b10 '"
b101001100010000000100001 |
b11100 P
b11100 H
b11100 ."
b11100 <"
b1000010010011100000100010 O
b1000010010011100000100010 G
b1000010010011100000100010 [
b1000010010011100000100010 c
b100 S
b1000100101000000100011 U
b1000100101000000100011 K
1$
1.
#130
0$
0.
#135
b1 0"
b1 :"
0?"
1N"
b100 a
b100 }
b110 >"
1R"
1("
b11111111111111111111111111111111 Q"
b11111111111111111111111111111111 '"
0h
1f
b100010 b
b0 S
1V
1L
b10000010000010000000001100100 U
b10000010000010000000001100100 K
b100000 P
b100000 H
b100000 ."
b100000 <"
b1000100101000000100011 O
b1000100101000000100011 G
b1000100101000000100011 [
b1000100101000000100011 c
b0 z
b0 ="
b0 <
b0 _
b0 -"
b0 ;"
b100001 y
b100001 ;
b100001 ^
b100001 )"
b0 {
b0 !
b0 =
b0 `
b0 *"
b100 u
b100 Y
b110 w
b110 :
b110 ]
b110 $"
b110 ,"
b110 9"
b110 T"
b110 X
b110 !"
b101 v
b101 9
b101 \
b101 #"
b101 +"
b101 8"
b101 W
b101 ~
b1000010010011100000100010 |
1$
1.
#140
0$
0.
#145
b11111111111111111111111111111111 #
b11111111111111111111111111111111 I
b11111111111111111111111111111111 Z
b11111111111111111111111111111111 ""
1A"
b10 0"
b10 :"
0?"
0N"
b111 a
b111 }
b1001 >"
0f
1g
b100011 b
1R"
1("
b1000 Q"
b1000 '"
b100001 5"
b100001 C
b0 6"
b0 D
b11111111111111111111111111111111 2"
b11111111111111111111111111111111 A
b11111111111111111111111111111111 S"
b100010 y
b100010 ;
b100010 ^
b100010 )"
b111 u
b111 Y
b1001 w
b1001 :
b1001 ]
b1001 $"
b1001 ,"
b1001 9"
b1001 T"
b1001 X
b1001 !"
b1000 v
b1000 9
b1000 \
b1000 #"
b1000 +"
b1000 8"
b1000 W
b1000 ~
b1000100101000000100011 |
0Q
0R
b100100 P
b100100 H
b100100 ."
b100100 <"
b10000010000010000000001100100 O
b10000010000010000000001100100 G
b10000010000010000000001100100 [
b10000010000010000000001100100 c
0T
0J
b1 S
0V
0L
b10000110000100000100000 U
b10000110000100000100000 K
1$
1.
#150
0$
0.
#155
0/"
1H"
b11 0"
b11 :"
0?"
0A"
b1010 a
b1010 }
b10 >"
1R"
1("
b10 Q"
b10 '"
0p
1j
b100 d
0g
1i
b100100 b
b1000 #
b1000 I
b1000 Z
b1000 ""
1Q
1R
b100011 y
b100011 ;
b100011 ^
b100011 )"
b1010 u
b1010 Y
b10 w
b10 :
b10 ]
b10 $"
b10 ,"
b10 9"
b10 T"
b10 X
b10 !"
b1 v
b0 9
b0 \
b0 #"
b0 +"
b0 8"
b1 W
b1 ~
b10000010000010000000001100100 |
b100010 5"
b100010 C
b1000 2"
b1000 A
b1000 S"
1$
1.
#160
0$
0.
#165
b10 #
b10 I
b10 Z
b10 ""
b0 0"
b0 :"
1?"
0H"
b0 a
b0 }
b0 >"
1R"
1("
b10 Q"
b10 '"
b100011 5"
b100011 C
b10 2"
b10 A
b10 S"
b1100100 z
b1100100 ="
b1100100 <
b1100100 _
b1100100 -"
b1100100 ;"
b0 y
b0 ;
b0 ^
b0 )"
b100 {
b100 !
b100 =
b100 `
b100 *"
b0 u
b0 Y
b1 w
b0 :
b0 ]
b0 $"
b0 ,"
b0 9"
b0 T"
b1 X
b1 !"
b10 v
b10 9
b10 \
b10 #"
b10 +"
b10 8"
b10 W
b10 ~
1T
1J
b10 S
b101001100010000000100001 U
b101001100010000000100001 K
1$
1.
#170
0$
0.
#175
1R"
1("
b10 Q"
b10 '"
b11 S
b1000010010011100000100010 U
b1000010010011100000100010 K
b101000 P
b101000 H
b101000 ."
b101000 <"
b101001100010000000100001 O
b101001100010000000100001 G
b101001100010000000100001 [
b101001100010000000100001 c
b0 5"
b0 C
b100 6"
b100 D
1$
1.
#180
0$
0.
#185
1p
0j
b0 d
1h
0i
b100001 b
1R"
1("
b10 Q"
b10 '"
b101001100010000000100001 |
b101100 P
b101100 H
b101100 ."
b101100 <"
b1000010010011100000100010 O
b1000010010011100000100010 G
b1000010010011100000100010 [
b1000010010011100000100010 c
b100 S
b1000100101000000100011 U
b1000100101000000100011 K
1$
1.
#190
0$
0.
#195
b1 0"
b1 :"
0?"
1N"
b100 a
b100 }
b110 >"
1R"
1("
b11111111111111111111111111111111 Q"
b11111111111111111111111111111111 '"
0h
1f
b100010 b
b0 S
1V
1L
b10000010000010000000001100100 U
b10000010000010000000001100100 K
b110000 P
b110000 H
b110000 ."
b110000 <"
b1000100101000000100011 O
b1000100101000000100011 G
b1000100101000000100011 [
b1000100101000000100011 c
b0 z
b0 ="
b0 <
b0 _
b0 -"
b0 ;"
b100001 y
b100001 ;
b100001 ^
b100001 )"
b0 {
b0 !
b0 =
b0 `
b0 *"
b100 u
b100 Y
b110 w
b110 :
b110 ]
b110 $"
b110 ,"
b110 9"
b110 T"
b110 X
b110 !"
b101 v
b101 9
b101 \
b101 #"
b101 +"
b101 8"
b101 W
b101 ~
b1000010010011100000100010 |
1$
1.
#200
0$
0.
#205
b11111111111111111111111111111111 #
b11111111111111111111111111111111 I
b11111111111111111111111111111111 Z
b11111111111111111111111111111111 ""
1A"
b10 0"
b10 :"
0?"
0N"
b111 a
b111 }
b1001 >"
0f
1g
b100011 b
1R"
1("
b1000 Q"
b1000 '"
b100001 5"
b100001 C
b0 6"
b0 D
b11111111111111111111111111111111 2"
b11111111111111111111111111111111 A
b11111111111111111111111111111111 S"
b100010 y
b100010 ;
b100010 ^
b100010 )"
b111 u
b111 Y
b1001 w
b1001 :
b1001 ]
b1001 $"
b1001 ,"
b1001 9"
b1001 T"
b1001 X
b1001 !"
b1000 v
b1000 9
b1000 \
b1000 #"
b1000 +"
b1000 8"
b1000 W
b1000 ~
b1000100101000000100011 |
0Q
0R
b110100 P
b110100 H
b110100 ."
b110100 <"
b10000010000010000000001100100 O
b10000010000010000000001100100 G
b10000010000010000000001100100 [
b10000010000010000000001100100 c
0T
0J
b1 S
0V
0L
b10000110000100000100000 U
b10000110000100000100000 K
1$
1.
#210
0$
0.
#215
0/"
1H"
b11 0"
b11 :"
0?"
0A"
b1010 a
b1010 }
b10 >"
1R"
1("
b10 Q"
b10 '"
0p
1j
b100 d
0g
1i
b100100 b
b1000 #
b1000 I
b1000 Z
b1000 ""
1Q
1R
b100011 y
b100011 ;
b100011 ^
b100011 )"
b1010 u
b1010 Y
b10 w
b10 :
b10 ]
b10 $"
b10 ,"
b10 9"
b10 T"
b10 X
b10 !"
b1 v
b0 9
b0 \
b0 #"
b0 +"
b0 8"
b1 W
b1 ~
b10000010000010000000001100100 |
b100010 5"
b100010 C
b1000 2"
b1000 A
b1000 S"
1$
1.
#220
0$
0.
#225
b10 #
b10 I
b10 Z
b10 ""
b0 0"
b0 :"
1?"
0H"
b0 a
b0 }
b0 >"
1R"
1("
b10 Q"
b10 '"
b100011 5"
b100011 C
b10 2"
b10 A
b10 S"
b1100100 z
b1100100 ="
b1100100 <
b1100100 _
b1100100 -"
b1100100 ;"
b0 y
b0 ;
b0 ^
b0 )"
b100 {
b100 !
b100 =
b100 `
b100 *"
b0 u
b0 Y
b1 w
b0 :
b0 ]
b0 $"
b0 ,"
b0 9"
b0 T"
b1 X
b1 !"
b10 v
b10 9
b10 \
b10 #"
b10 +"
b10 8"
b10 W
b10 ~
1T
1J
b10 S
b101001100010000000100001 U
b101001100010000000100001 K
1$
1.
#230
0$
0.
#235
1R"
1("
b10 Q"
b10 '"
b11 S
b1000010010011100000100010 U
b1000010010011100000100010 K
b111000 P
b111000 H
b111000 ."
b111000 <"
b101001100010000000100001 O
b101001100010000000100001 G
b101001100010000000100001 [
b101001100010000000100001 c
b0 5"
b0 C
b100 6"
b100 D
1$
1.
#240
0$
0.
#245
1p
0j
b0 d
1h
0i
b100001 b
1R"
1("
b10 Q"
b10 '"
b101001100010000000100001 |
b111100 P
b111100 H
b111100 ."
b111100 <"
b1000010010011100000100010 O
b1000010010011100000100010 G
b1000010010011100000100010 [
b1000010010011100000100010 c
b100 S
b1000100101000000100011 U
b1000100101000000100011 K
1$
1.
#250
0$
0.
#255
b1 0"
b1 :"
0?"
1N"
b100 a
b100 }
b110 >"
1R"
1("
b11111111111111111111111111111111 Q"
b11111111111111111111111111111111 '"
0h
1f
b100010 b
b0 S
1V
1L
b10000010000010000000001100100 U
b10000010000010000000001100100 K
b1000000 P
b1000000 H
b1000000 ."
b1000000 <"
b1000100101000000100011 O
b1000100101000000100011 G
b1000100101000000100011 [
b1000100101000000100011 c
b0 z
b0 ="
b0 <
b0 _
b0 -"
b0 ;"
b100001 y
b100001 ;
b100001 ^
b100001 )"
b0 {
b0 !
b0 =
b0 `
b0 *"
b100 u
b100 Y
b110 w
b110 :
b110 ]
b110 $"
b110 ,"
b110 9"
b110 T"
b110 X
b110 !"
b101 v
b101 9
b101 \
b101 #"
b101 +"
b101 8"
b101 W
b101 ~
b1000010010011100000100010 |
1$
1.
#260
0$
0.
#265
b11111111111111111111111111111111 #
b11111111111111111111111111111111 I
b11111111111111111111111111111111 Z
b11111111111111111111111111111111 ""
1A"
b10 0"
b10 :"
0?"
0N"
b111 a
b111 }
b1001 >"
0f
1g
b100011 b
1R"
1("
b1000 Q"
b1000 '"
b100001 5"
b100001 C
b0 6"
b0 D
b11111111111111111111111111111111 2"
b11111111111111111111111111111111 A
b11111111111111111111111111111111 S"
b100010 y
b100010 ;
b100010 ^
b100010 )"
b111 u
b111 Y
b1001 w
b1001 :
b1001 ]
b1001 $"
b1001 ,"
b1001 9"
b1001 T"
b1001 X
b1001 !"
b1000 v
b1000 9
b1000 \
b1000 #"
b1000 +"
b1000 8"
b1000 W
b1000 ~
b1000100101000000100011 |
0Q
0R
b1000100 P
b1000100 H
b1000100 ."
b1000100 <"
b10000010000010000000001100100 O
b10000010000010000000001100100 G
b10000010000010000000001100100 [
b10000010000010000000001100100 c
0T
0J
b1 S
0V
0L
b10000110000100000100000 U
b10000110000100000100000 K
1$
1.
#270
0$
0.
#275
0/"
1H"
b11 0"
b11 :"
0?"
0A"
b1010 a
b1010 }
b10 >"
1R"
1("
b10 Q"
b10 '"
0p
1j
b100 d
0g
1i
b100100 b
b1000 #
b1000 I
b1000 Z
b1000 ""
1Q
1R
b100011 y
b100011 ;
b100011 ^
b100011 )"
b1010 u
b1010 Y
b10 w
b10 :
b10 ]
b10 $"
b10 ,"
b10 9"
b10 T"
b10 X
b10 !"
b1 v
b0 9
b0 \
b0 #"
b0 +"
b0 8"
b1 W
b1 ~
b10000010000010000000001100100 |
b100010 5"
b100010 C
b1000 2"
b1000 A
b1000 S"
1$
1.
#280
0$
0.
#285
b10 #
b10 I
b10 Z
b10 ""
b0 0"
b0 :"
1?"
0H"
b0 a
b0 }
b0 >"
1R"
1("
b10 Q"
b10 '"
b100011 5"
b100011 C
b10 2"
b10 A
b10 S"
b1100100 z
b1100100 ="
b1100100 <
b1100100 _
b1100100 -"
b1100100 ;"
b0 y
b0 ;
b0 ^
b0 )"
b100 {
b100 !
b100 =
b100 `
b100 *"
b0 u
b0 Y
b1 w
b0 :
b0 ]
b0 $"
b0 ,"
b0 9"
b0 T"
b1 X
b1 !"
b10 v
b10 9
b10 \
b10 #"
b10 +"
b10 8"
b10 W
b10 ~
1T
1J
b10 S
b101001100010000000100001 U
b101001100010000000100001 K
1$
1.
#290
0$
0.
#295
1R"
1("
b10 Q"
b10 '"
b11 S
b1000010010011100000100010 U
b1000010010011100000100010 K
b1001000 P
b1001000 H
b1001000 ."
b1001000 <"
b101001100010000000100001 O
b101001100010000000100001 G
b101001100010000000100001 [
b101001100010000000100001 c
b0 5"
b0 C
b100 6"
b100 D
1$
1.
#300
0$
0.
#305
1p
0j
b0 d
1h
0i
b100001 b
1R"
1("
b10 Q"
b10 '"
b101001100010000000100001 |
b1001100 P
b1001100 H
b1001100 ."
b1001100 <"
b1000010010011100000100010 O
b1000010010011100000100010 G
b1000010010011100000100010 [
b1000010010011100000100010 c
b100 S
b1000100101000000100011 U
b1000100101000000100011 K
1$
1.
#310
0$
0.
#315
b1 0"
b1 :"
0?"
1N"
b100 a
b100 }
b110 >"
1R"
1("
b11111111111111111111111111111111 Q"
b11111111111111111111111111111111 '"
0h
1f
b100010 b
b0 S
1V
1L
b10000010000010000000001100100 U
b10000010000010000000001100100 K
b1010000 P
b1010000 H
b1010000 ."
b1010000 <"
b1000100101000000100011 O
b1000100101000000100011 G
b1000100101000000100011 [
b1000100101000000100011 c
b0 z
b0 ="
b0 <
b0 _
b0 -"
b0 ;"
b100001 y
b100001 ;
b100001 ^
b100001 )"
b0 {
b0 !
b0 =
b0 `
b0 *"
b100 u
b100 Y
b110 w
b110 :
b110 ]
b110 $"
b110 ,"
b110 9"
b110 T"
b110 X
b110 !"
b101 v
b101 9
b101 \
b101 #"
b101 +"
b101 8"
b101 W
b101 ~
b1000010010011100000100010 |
1$
1.
#320
0$
0.
#325
b11111111111111111111111111111111 #
b11111111111111111111111111111111 I
b11111111111111111111111111111111 Z
b11111111111111111111111111111111 ""
1A"
b10 0"
b10 :"
0?"
0N"
b111 a
b111 }
b1001 >"
0f
1g
b100011 b
1R"
1("
b1000 Q"
b1000 '"
b100001 5"
b100001 C
b0 6"
b0 D
b11111111111111111111111111111111 2"
b11111111111111111111111111111111 A
b11111111111111111111111111111111 S"
b100010 y
b100010 ;
b100010 ^
b100010 )"
b111 u
b111 Y
b1001 w
b1001 :
b1001 ]
b1001 $"
b1001 ,"
b1001 9"
b1001 T"
b1001 X
b1001 !"
b1000 v
b1000 9
b1000 \
b1000 #"
b1000 +"
b1000 8"
b1000 W
b1000 ~
b1000100101000000100011 |
0Q
0R
b1010100 P
b1010100 H
b1010100 ."
b1010100 <"
b10000010000010000000001100100 O
b10000010000010000000001100100 G
b10000010000010000000001100100 [
b10000010000010000000001100100 c
0T
0J
b1 S
0V
0L
b10000110000100000100000 U
b10000110000100000100000 K
1$
1.
#330
0$
0.
#335
0/"
1H"
b11 0"
b11 :"
0?"
0A"
b1010 a
b1010 }
b10 >"
1R"
1("
b10 Q"
b10 '"
0p
1j
b100 d
0g
1i
b100100 b
b1000 #
b1000 I
b1000 Z
b1000 ""
1Q
1R
b100011 y
b100011 ;
b100011 ^
b100011 )"
b1010 u
b1010 Y
b10 w
b10 :
b10 ]
b10 $"
b10 ,"
b10 9"
b10 T"
b10 X
b10 !"
b1 v
b0 9
b0 \
b0 #"
b0 +"
b0 8"
b1 W
b1 ~
b10000010000010000000001100100 |
b100010 5"
b100010 C
b1000 2"
b1000 A
b1000 S"
1$
1.
#340
0$
0.
#345
b10 #
b10 I
b10 Z
b10 ""
b0 0"
b0 :"
1?"
0H"
b0 a
b0 }
b0 >"
1R"
1("
b10 Q"
b10 '"
b100011 5"
b100011 C
b10 2"
b10 A
b10 S"
b1100100 z
b1100100 ="
b1100100 <
b1100100 _
b1100100 -"
b1100100 ;"
b0 y
b0 ;
b0 ^
b0 )"
b100 {
b100 !
b100 =
b100 `
b100 *"
b0 u
b0 Y
b1 w
b0 :
b0 ]
b0 $"
b0 ,"
b0 9"
b0 T"
b1 X
b1 !"
b10 v
b10 9
b10 \
b10 #"
b10 +"
b10 8"
b10 W
b10 ~
1T
1J
b10 S
b101001100010000000100001 U
b101001100010000000100001 K
1$
1.
#350
0$
0.
