waveform/memory.vcd
$date
	Fri Oct 03 03:10:48 2025
$end
$version
	Icarus Verilog
$end
$timescale
	1s
$end
$scope module tb $end
$var wire 32 ! m_o_load_data [31:0] $end
$var reg 32 " alu_value_addr [31:0] $end
$var integer 32 # i [31:0] $end
$var reg 1 $ m_clk $end
$var reg 1 % m_i_ce $end
$var reg 32 & m_i_store_data [31:0] $end
$var reg 1 ' m_rd_en $end
$var reg 1 ( m_rst $end
$var reg 1 ) m_wr_en $end
$scope module m $end
$var wire 32 * alu_value_addr [31:0] $end
$var wire 1 + m_clk $end
$var wire 1 , m_i_ce $end
$var wire 32 - m_i_store_data [31:0] $end
$var wire 1 . m_rd_en $end
$var wire 1 / m_rst $end
$var wire 1 0 m_wr_en $end
$var integer 32 1 i [31:0] $end
$var reg 32 2 m_o_load_data [31:0] $end
$upscope $end
$scope task display $end
$var integer 32 3 counter [31:0] $end
$upscope $end
$scope task load_data $end
$var integer 32 4 counter [31:0] $end
$upscope $end
$scope task reset $end
$var integer 32 5 counter [31:0] $end
$upscope $end
$upscope $end
$enddefinitions $end
#0
$dumpvars
b10 5
bx 4
bx 3
b0 2
b100000 1
00
0/
0.
bx -
0,
0+
bx *
0)
0(
0'
bx &
0%
0$
b0 #
bx "
b0 !
$end
#5
b100000 1
1$
1+
#10
0$
0+
#15
1%
1,
1(
1/
1$
1+
#20
0$
0+
#25
1)
10
b1010 4
1$
1+
#30
0$
0+
#35
b1 #
b0 &
b0 -
b0 "
b0 *
1$
1+
#40
0$
0+
#45
b10 #
b1 &
b1 -
b1 "
b1 *
1$
1+
#50
0$
0+
#55
b11 #
b10 &
b10 -
b10 "
b10 *
1$
1+
#60
0$
0+
#65
b100 #
b11 &
b11 -
b11 "
b11 *
1$
1+
#70
0$
0+
#75
b101 #
b100 &
b100 -
b100 "
b100 *
1$
1+
#80
0$
0+
#85
b110 #
b101 &
b101 -
b101 "
b101 *
1$
1+
#90
0$
0+
#95
b111 #
b110 &
b110 -
b110 "
b110 *
1$
1+
#100
0$
0+
#105
b1000 #
b111 &
b111 -
b111 "
b111 *
1$
1+
#110
0$
0+
#115
b1001 #
b1000 &
b1000 -
b1000 "
b1000 *
1$
1+
#120
0$
0+
#125
b1010 #
b1001 &
b1001 -
b1001 "
b1001 *
1$
1+
#130
0$
0+
#135
0)
00
1$
1+
#140
0$
0+
#145
b1001 2
b1001 !
b0 #
1'
1.
b1010 3
1$
1+
#150
0$
0+
#155
b0 2
b0 !
b0 "
b0 *
1$
1+
#160
0$
0+
#165
b1 #
1$
1+
#170
0$
0+
#175
b1 2
b1 !
b1 "
b1 *
1$
1+
#180
0$
0+
#185
b10 #
1$
1+
#190
0$
0+
#195
b10 2
b10 !
b10 "
b10 *
1$
1+
#200
0$
0+
#205
b11 #
1$
1+
#210
0$
0+
#215
b11 2
b11 !
b11 "
b11 *
1$
1+
#220
0$
0+
#225
b100 #
1$
1+
#230
0$
0+
#235
b100 2
b100 !
b100 "
b100 *
1$
1+
#240
0$
0+
#245
b101 #
1$
1+
#250
0$
0+
#255
b101 2
b101 !
b101 "
b101 *
1$
1+
#260
0$
0+
#265
b110 #
1$
1+
#270
0$
0+
#275
b110 2
b110 !
b110 "
b110 *
1$
1+
#280
0$
0+
#285
b111 #
1$
1+
#290
0$
0+
#295
b111 2
b111 !
b111 "
b111 *
1$
1+
#300
0$
0+
#305
b1000 #
1$
1+
#310
0$
0+
#315
b1000 2
b1000 !
b1000 "
b1000 *
1$
1+
#320
0$
0+
#325
b1001 #
1$
1+
#330
0$
0+
#335
b1001 2
b1001 !
b1001 "
b1001 *
1$
1+
#340
0$
0+
#345
b1010 #
1$
1+
#350
0$
0+
#355
0'
0.
1$
1+
#360
0$
0+
#365
0%
0,
1$
1+
