waveform/processor.vcd
$date
	Wed Oct 08 00:51:26 2025
$end
$version
	Icarus Verilog
$end
$timescale
	1s
$end
$scope module tb $end
$var wire 32 ! p_o_pc [31:0] $end
$var wire 32 " p_wb_data [31:0] $end
$var reg 1 # p_clk $end
$var reg 1 $ p_i_ce $end
$var reg 1 % p_rst $end
$scope module p $end
$var wire 1 & c_d_o_ALUSrc $end
$var wire 1 ' c_d_o_Branch $end
$var wire 1 ( c_d_o_MemRead $end
$var wire 1 ) c_d_o_MemWrite $end
$var wire 1 * c_d_o_MemtoReg $end
$var wire 1 + c_d_o_RegDst $end
$var wire 1 , c_d_o_RegWrite $end
$var wire 6 - d_c_o_opcode [5:0] $end
$var wire 1 . p_clk $end
$var wire 1 / p_i_ce $end
$var wire 32 0 p_o_pc [31:0] $end
$var wire 1 1 p_rst $end
$var wire 32 2 p_wb_data [31:0] $end
$scope module d $end
$var wire 1 . d_clk $end
$var wire 1 & d_i_ALUSrc $end
$var wire 1 ' d_i_Branch $end
$var wire 1 ( d_i_MemRead $end
$var wire 1 ) d_i_MemWrite $end
$var wire 1 * d_i_MemtoReg $end
$var wire 1 + d_i_RegDst $end
$var wire 1 , d_i_RegWrite $end
$var wire 1 / d_i_ce $end
$var wire 1 1 d_rst $end
$var wire 1 3 ds_es_o_ce $end
$var wire 32 4 ds_es_o_data_rs [31:0] $end
$var wire 32 5 ds_es_o_data_rt [31:0] $end
$var wire 6 6 ds_es_o_funct [5:0] $end
$var wire 16 7 ds_es_o_imm [15:0] $end
$var wire 6 8 ds_es_o_opcode [5:0] $end
$var wire 1 9 es_is_change_pc $end
$var wire 32 : es_is_o_pc [31:0] $end
$var wire 32 ; es_load_data [31:0] $end
$var wire 32 < es_ms_alu_value [31:0] $end
$var wire 1 = es_ms_o_ce $end
$var wire 6 > es_o_funct [5:0] $end
$var wire 6 ? es_o_opcode [5:0] $end
$var wire 1 @ es_o_zero $end
$var wire 1 A fs_ds_o_ce $end
$var wire 32 B fs_ds_o_instr [31:0] $end
$var wire 32 C fs_es_o_pc [31:0] $end
$var wire 32 D write_back_data [31:0] $end
$scope module is $end
$var wire 1 . f_clk $end
$var wire 1 E f_i_ack $end
$var wire 1 / f_i_ce $end
$var wire 1 9 f_i_change_pc $end
$var wire 32 F f_i_instr [31:0] $end
$var wire 1 G f_i_last $end
$var wire 32 H f_i_pc [31:0] $end
$var wire 1 1 f_rst $end
$var wire 32 I temp_pc [31:0] $end
$var reg 32 J cur_pc [31:0] $end
$var reg 1 K f_o_ce $end
$var reg 32 L f_o_instr [31:0] $end
$var reg 32 M f_o_pc [31:0] $end
$var reg 1 N f_o_syn $end
$scope module t $end
$var wire 1 . t_clk $end
$var wire 1 O t_i_syn $end
$var wire 1 1 t_rst $end
$var integer 32 P counter [31:0] $end
$var reg 1 Q t_o_ack $end
$var reg 32 R t_o_instr [31:0] $end
$var reg 1 S t_o_last $end
$upscope $end
$upscope $end
$scope module ds $end
$var wire 5 T d_o_addr_rs [4:0] $end
$var wire 5 U d_o_addr_rt [4:0] $end
$var wire 1 . ds_clk $end
$var wire 5 V ds_i_addr_rd [4:0] $end
$var wire 1 A ds_i_ce $end
$var wire 32 W ds_i_data_rd [31:0] $end
$var wire 32 X ds_i_instr [31:0] $end
$var wire 1 + ds_i_reg_dst $end
$var wire 1 , ds_i_reg_wr $end
$var wire 1 3 ds_o_ce $end
$var wire 32 Y ds_o_data_rs [31:0] $end
$var wire 32 Z ds_o_data_rt [31:0] $end
$var wire 6 [ ds_o_funct [5:0] $end
$var wire 16 \ ds_o_imm [15:0] $end
$var wire 6 ] ds_o_opcode [5:0] $end
$var wire 1 1 ds_rst $end
$var wire 5 ^ write_register [4:0] $end
$scope module d $end
$var wire 1 . d_clk $end
$var wire 1 A d_i_ce $end
$var wire 6 _ d_i_funct [5:0] $end
$var wire 32 ` d_i_instr [31:0] $end
$var wire 6 a d_i_opcode [5:0] $end
$var wire 1 1 d_rst $end
$var wire 6 b funct [5:0] $end
$var wire 1 c funct_add $end
$var wire 1 d funct_and $end
$var wire 1 e funct_or $end
$var wire 1 f funct_sub $end
$var wire 1 g funct_xor $end
$var wire 16 h imm [15:0] $end
$var wire 1 i op_addi $end
$var wire 1 j op_addiu $end
$var wire 1 k op_andi $end
$var wire 1 l op_beq $end
$var wire 1 m op_bne $end
$var wire 1 n op_load $end
$var wire 1 o op_ori $end
$var wire 1 p op_rtype $end
$var wire 1 q op_slti $end
$var wire 1 r op_sltiu $end
$var wire 1 s op_store $end
$var wire 1 t op_xori $end
$var wire 6 u opcode [5:0] $end
$var wire 5 v rd [4:0] $end
$var wire 5 w rs [4:0] $end
$var wire 5 x rt [4:0] $end
$var reg 5 y d_o_addr_rd [4:0] $end
$var reg 5 z d_o_addr_rs [4:0] $end
$var reg 5 { d_o_addr_rt [4:0] $end
$var reg 1 | d_o_ce $end
$var reg 6 } d_o_funct [5:0] $end
$var reg 16 ~ d_o_imm [15:0] $end
$var reg 6 !" d_o_opcode [5:0] $end
$upscope $end
$scope module r $end
$var wire 5 "" r_addr_in [4:0] $end
$var wire 5 #" r_addr_out1 [4:0] $end
$var wire 5 $" r_addr_out2 [4:0] $end
$var wire 1 . r_clk $end
$var wire 32 %" r_data_in [31:0] $end
$var wire 32 &" r_data_out1 [31:0] $end
$var wire 32 '" r_data_out2 [31:0] $end
$var wire 1 1 r_rst $end
$var wire 1 , r_wr_en $end
$var integer 32 (" i [31:0] $end
$upscope $end
$upscope $end
$scope module es $end
$var wire 32 )" alu_pc [31:0] $end
$var wire 32 *" alu_value [31:0] $end
$var wire 1 +" change_pc $end
$var wire 1 ," done $end
$var wire 1 . es_clk $end
$var wire 6 -" es_i_alu_funct [5:0] $end
$var wire 6 ." es_i_alu_op [5:0] $end
$var wire 1 & es_i_alu_src $end
$var wire 1 ' es_i_branch $end
$var wire 1 3 es_i_ce $end
$var wire 32 /" es_i_data_rs [31:0] $end
$var wire 32 0" es_i_data_rt [31:0] $end
$var wire 16 1" es_i_imm [15:0] $end
$var wire 32 2" es_i_pc [31:0] $end
$var wire 1 1 es_rst $end
$var wire 1 3" temp_zero $end
$var reg 5 4" alu_control [4:0] $end
$var reg 32 5" es_o_alu_pc [31:0] $end
$var reg 32 6" es_o_alu_value [31:0] $end
$var reg 1 7" es_o_ce $end
$var reg 1 8" es_o_change_pc $end
$var reg 6 9" es_o_funct [5:0] $end
$var reg 6 :" es_o_opcode [5:0] $end
$var reg 1 ;" es_o_zero $end
$scope module a $end
$var wire 1 & a_i_alu_src $end
$var wire 32 <" a_i_data_rs [31:0] $end
$var wire 32 =" a_i_data_rt [31:0] $end
$var wire 5 >" a_i_funct [4:0] $end
$var wire 16 ?" a_i_imm [15:0] $end
$var wire 32 @" a_i_pc [31:0] $end
$var wire 32 A" a_imm [31:0] $end
$var wire 32 B" a_o_data_2 [31:0] $end
$var wire 1 C" funct_add $end
$var wire 1 D" funct_addu $end
$var wire 1 E" funct_and $end
$var wire 1 F" funct_beq $end
$var wire 1 G" funct_bne $end
$var wire 1 H" funct_eq $end
$var wire 1 I" funct_ge $end
$var wire 1 J" funct_geu $end
$var wire 1 K" funct_neq $end
$var wire 1 L" funct_or $end
$var wire 1 M" funct_sll $end
$var wire 1 N" funct_slt $end
$var wire 1 O" funct_sltu $end
$var wire 1 P" funct_sra $end
$var wire 1 Q" funct_srl $end
$var wire 1 R" funct_sub $end
$var wire 1 S" funct_xor $end
$var reg 1 T" a_o_change_pc $end
$var reg 32 U" alu_pc [31:0] $end
$var reg 32 V" alu_value [31:0] $end
$var reg 1 W" done $end
$upscope $end
$upscope $end
$scope module m $end
$var wire 32 X" alu_value_addr [31:0] $end
$var wire 1 . m_clk $end
$var wire 1 = m_i_ce $end
$var wire 32 Y" m_i_store_data [31:0] $end
$var wire 1 ( m_rd_en $end
$var wire 1 1 m_rst $end
$var wire 1 ) m_wr_en $end
$var integer 32 Z" i [31:0] $end
$var reg 32 [" m_o_load_data [31:0] $end
$upscope $end
$upscope $end
$scope module c $end
$var wire 6 \" d_c_opcode [5:0] $end
$var reg 1 ]" ALUSrc $end
$var reg 1 ^" Branch $end
$var reg 1 _" MemRead $end
$var reg 1 `" MemWrite $end
$var reg 1 a" MemtoReg $end
$var reg 1 b" RegDst $end
$var reg 1 c" RegWrite $end
$upscope $end
$upscope $end
$scope task reset $end
$var integer 32 d" counter [31:0] $end
$upscope $end
$upscope $end
$enddefinitions $end
#0
$dumpvars
b10 d"
1c"
1b"
0a"
0`"
0_"
0^"
0]"
b0 \"
b0 ["
b100000 Z"
b0 Y"
b0 X"
1W"
b0 V"
b0 U"
xT"
0S"
0R"
0Q"
0P"
0O"
0N"
0M"
0L"
0K"
0J"
0I"
0H"
0G"
0F"
0E"
0D"
1C"
b0 B"
b0 A"
b0 @"
b0 ?"
b0 >"
b0 ="
b0 <"
0;"
b0 :"
b0 9"
08"
07"
b0 6"
b0 5"
b0 4"
13"
b0 2"
b0 1"
b0 0"
b0 /"
b0 ."
b0 -"
1,"
x+"
b0 *"
b0 )"
b100000 ("
b0 '"
b0 &"
b0 %"
b0 $"
b0 #"
b0 ""
b0 !"
b0 ~
b0 }
0|
b0 {
b0 z
b0 y
b0 x
b0 w
b0 v
b0 u
0t
0s
0r
0q
1p
0o
0n
0m
0l
0k
0j
0i
b0 h
0g
0f
0e
0d
0c
b0 b
b0 a
b0 `
b0 _
b0 ^
b0 ]
b0 \
b0 [
b0 Z
b0 Y
b0 X
b0 W
b0 V
b0 U
b0 T
0S
b0 R
0Q
b0 P
0O
0N
b0 M
b0 L
0K
b0 J
b100 I
b0 H
0G
b0 F
0E
b0 D
b0 C
b0 B
0A
0@
b0 ?
b0 >
0=
b0 <
b0 ;
b0 :
09
b0 8
b0 7
b0 6
b0 5
b0 4
03
b0 2
01
b0 0
x/
0.
b0 -
1,
1+
0*
0)
0(
0'
0&
0%
x$
0#
b0 "
b0 !
$end
#5
b100000 Z"
b100000 ("
1#
1.
#10
0#
0.
#15
1%
11
1#
1.
#20
0#
0.
#25
1N
1O
1$
1/
1#
1.
#30
0#
0.
#35
1Q
1E
b1 P
b10000110000100000100000 R
b10000110000100000100000 F
1#
1.
#40
0#
0.
#45
b1000 I
1c
b100000 _
b10 w
b11 x
b1 v
b100000 b
b100000100000 h
1K
1A
b100 J
b10000110000100000100000 L
b10000110000100000100000 B
b10000110000100000100000 X
b10000110000100000100000 `
b10 P
b101001100010000000100001 R
b101001100010000000100001 F
1#
1.
#50
0#
0.
#55
b1100 I
03"
0c
1f
b100001 _
b101 w
b110 x
b100 v
b100001 b
b10000000100001 h
b1 ^
b1 ""
b11 B"
b101 V"
b101 *"
1W"
1,"
b11 P
b1000010010011100000100010 R
b1000010010011100000100010 F
b1000 J
b100 M
b100 !
b100 0
b100 C
b100 2"
b100 @"
b101001100010000000100001 L
b101001100010000000100001 B
b101001100010000000100001 X
b101001100010000000100001 `
1|
13
b100000 }
b100000 6
b100000 [
b100000 -"
b1 y
b1 V
b11 {
b11 5
b11 Z
b11 '"
b11 0"
b11 ="
b11 Y"
b11 U
b11 $"
b10 z
b10 4
b10 Y
b10 &"
b10 /"
b10 <"
b10 T
b10 #"
1#
1.
#60
0#
0.
#65
b10000 I
b101 "
b101 2
b101 D
b101 W
b101 %"
b1 4"
b1 >"
0C"
1R"
b100 ^
b100 ""
b110 B"
1W"
1,"
b11111111111111111111111111111111 V"
b11111111111111111111111111111111 *"
0f
1d
b100010 _
b1000 w
b1001 x
b111 v
b100010 b
b11100000100010 h
17"
1=
b100000 9"
b100000 >
b101 6"
b101 <
b101 X"
b100001 }
b100001 6
b100001 [
b100001 -"
b100 y
b100 V
b110 {
b110 5
b110 Z
b110 '"
b110 0"
b110 ="
b110 Y"
b110 U
b110 $"
b101 z
b101 4
b101 Y
b101 &"
b101 /"
b101 <"
b101 T
b101 #"
b1100 J
b1000 M
b1000 !
b1000 0
b1000 C
b1000 2"
b1000 @"
b1000010010011100000100010 L
b1000010010011100000100010 B
b1000010010011100000100010 X
b1000010010011100000100010 `
b100 P
b1000100101000000100011 R
b1000100101000000100011 F
1#
1.
#70
0#
0.
#75
b10100 I
0d
1e
b100011 _
b1 w
b10 x
b1010 v
b100011 b
b101000000100011 h
1E"
b10 4"
b10 >"
0C"
0R"
b111 ^
b111 ""
b1001 B"
1W"
1,"
b1000 V"
b1000 *"
b11111111111111111111111111111111 "
b11111111111111111111111111111111 2
b11111111111111111111111111111111 D
b11111111111111111111111111111111 W
b11111111111111111111111111111111 %"
b101 P
b10000010000010000000001100100 R
b10000010000010000000001100100 F
b10000 J
b1100 M
b1100 !
b1100 0
b1100 C
b1100 2"
b1100 @"
b1000100101000000100011 L
b1000100101000000100011 B
b1000100101000000100011 X
b1000100101000000100011 `
b100010 }
b100010 6
b100010 [
b100010 -"
b111 y
b111 V
b1001 {
b1001 5
b1001 Z
b1001 '"
b1001 0"
b1001 ="
b1001 Y"
b1001 U
b1001 $"
b1000 z
b1000 4
b1000 Y
b1000 &"
b1000 /"
b1000 <"
b1000 T
b1000 #"
b100001 9"
b100001 >
b11111111111111111111111111111111 6"
b11111111111111111111111111111111 <
b11111111111111111111111111111111 X"
1#
1.
#80
0#
0.
#85
b11000 I
03"
b1000 "
b1000 2
b1000 D
b1000 W
b1000 %"
1L"
b11 4"
b11 >"
0C"
0E"
b1010 ^
b1010 ""
b10 B"
1W"
1,"
b10 V"
b10 *"
0p
1i
b100 a
0e
1g
b100100 _
b10 w
b1 x
b0 v
b100 u
b100100 b
b1100100 h
b100010 9"
b100010 >
b1000 6"
b1000 <
b1000 X"
b100011 }
b100011 6
b100011 [
b100011 -"
b1010 y
b1010 V
b10 {
b10 5
b10 Z
b10 '"
b10 0"
b10 ="
b10 Y"
b10 U
b10 $"
b1 z
b0 4
b0 Y
b0 &"
b0 /"
b0 <"
b1 T
b1 #"
b10100 J
b10000 M
b10000 !
b10000 0
b10000 C
b10000 2"
b10000 @"
b10000010000010000000001100100 L
b10000010000010000000001100100 B
b10000010000010000000001100100 X
b10000010000010000000001100100 `
b110 P
b100010010110000000000010000 R
b100010010110000000000010000 F
1#
1.
#90
0#
0.
#95
b11100 I
1n
0i
b1 a
0g
b10000 _
b1011 x
b1 u
b10000 b
b10000 h
1]"
1&
1c"
1,
0b"
0+
b0 4"
b0 >"
1C"
0L"
b1 ^
b1 ""
b1100100 B"
1W"
1,"
b1100110 V"
b1100110 *"
b10 "
b10 2
b10 D
b10 W
b10 %"
b0 P
1S
1G
b1101011010110000000000010000 R
b1101011010110000000000010000 F
b11000 J
b10100 M
b10100 !
b10100 0
b10100 C
b10100 2"
b10100 @"
b100010010110000000000010000 L
b100010010110000000000010000 B
b100010010110000000000010000 X
b100010010110000000000010000 `
b1100100 ~
b1100100 A"
b1100100 7
b1100100 \
b1100100 1"
b1100100 ?"
b0 }
b0 6
b0 [
b0 -"
b100 !"
b100 -
b100 8
b100 ]
b100 ."
b100 \"
b0 y
b0 V
b1 {
b0 5
b0 Z
b0 '"
b0 0"
b0 ="
b0 Y"
b1 U
b1 $"
b10 z
b10 4
b10 Y
b10 &"
b10 /"
b10 <"
b10 T
b10 #"
b100011 9"
b100011 >
b10 6"
b10 <
b10 X"
1#
1.
#100
0#
0.
#105
b100000 I
b0 "
b0 2
b0 D
b0 W
b0 %"
b10000 B"
1a"
1*
1_"
1(
1c"
1,
1]"
1&
b1011 ^
b1011 ""
1W"
1,"
b10010 V"
b10010 *"
0n
1l
b11 a
b1011 w
b11 u
b0 9"
b0 >
b100 :"
b100 ?
b1100110 6"
b1100110 <
b1100110 X"
b10000 ~
b10000 A"
b10000 7
b10000 \
b10000 1"
b10000 ?"
b1 !"
b1 -
b1 8
b1 ]
b1 ."
b1 \"
b1011 {
b1011 5
b1011 Z
b1011 '"
b1011 0"
b1011 ="
b1011 Y"
b1011 U
b1011 $"
b11100 J
b11000 M
b11000 !
b11000 0
b11000 C
b11000 2"
b11000 @"
b1101011010110000000000010000 L
b1101011010110000000000010000 B
b1101011010110000000000010000 X
b1101011010110000000000010000 `
0N
0O
0Q
0E
b1 P
0S
0G
b10000110000100000100000 R
b10000110000100000100000 F
1#
1.
#110
0#
0.
#115
13"
b0 B"
1T"
1+"
b1011000 U"
b1011000 )"
1^"
1'
0c"
0,
0]"
0&
0a"
0*
0_"
0(
b1111 4"
b1111 >"
0C"
1F"
1W"
1,"
b0 V"
b0 *"
b10010 "
b10010 2
b10010 D
b10010 W
b10010 %"
0K
0A
1N
1O
b11 !"
b11 -
b11 8
b11 ]
b11 ."
b11 \"
b1011 z
b0 4
b0 Y
b0 &"
b0 /"
b0 <"
b1011 T
b1011 #"
b0 5
b0 Z
b0 '"
b0 0"
b0 ="
b0 Y"
b1 :"
b1 ?
b10010 6"
b10010 <
b10010 X"
bx ["
bx ;
1#
1.
#120
0#
0.
#125
b1011000 I
b0 "
b0 2
b0 D
b0 W
b0 %"
1W"
1,"
b0 U"
b0 )"
1c"
1,
1b"
1+
0^"
0'
b0 4"
b0 >"
1C"
0F"
b0 ^
b0 ""
18"
19
b1011000 5"
b1011000 :
b1011000 H
1;"
1@
b11 :"
b11 ?
b0 6"
b0 <
b0 X"
0|
03
b0 ~
b0 A"
b0 7
b0 \
b0 1"
b0 ?"
b0 !"
b0 -
b0 8
b0 ]
b0 ."
b0 \"
b0 {
b0 U
b0 $"
b0 z
b0 T
b0 #"
1Q
1E
b10 P
b101001100010000000100001 R
b101001100010000000100001 F
1#
1.
#130
0#
0.
#135
b1011100 I
1W"
1,"
1p
0l
b0 a
1f
b100001 _
b101 w
b110 x
b100 v
b0 u
b100001 b
b10000000100001 h
b11 P
b1000010010011100000100010 R
b1000010010011100000100010 F
1K
1A
b1011000 J
b11100 M
b11100 !
b11100 0
b11100 C
b11100 2"
b11100 @"
b101001100010000000100001 L
b101001100010000000100001 B
b101001100010000000100001 X
b101001100010000000100001 `
07"
0=
b0 :"
b0 ?
0;"
0@
b0 5"
b0 :
b0 H
08"
09
1#
1.
#140
0#
0.
#145
b1100000 I
03"
b1 4"
b1 >"
0C"
1R"
b100 ^
b100 ""
b110 B"
b11111111111111111111111111111111 V"
b11111111111111111111111111111111 *"
1W"
1,"
0f
1d
b100010 _
b1000 w
b1001 x
b111 v
b100010 b
b11100000100010 h
1|
13
b100001 }
b100001 6
b100001 [
b100001 -"
b100 y
b100 V
b110 {
b110 5
b110 Z
b110 '"
b110 0"
b110 ="
b110 Y"
b110 U
b110 $"
b101 z
b101 4
b101 Y
b101 &"
b101 /"
b101 <"
b101 T
b101 #"
b1011100 J
b1011000 M
b1011000 !
b1011000 0
b1011000 C
b1011000 2"
b1011000 @"
b1000010010011100000100010 L
b1000010010011100000100010 B
b1000010010011100000100010 X
b1000010010011100000100010 `
b100 P
b1000100101000000100011 R
b1000100101000000100011 F
1#
1.
#150
0#
0.
#155
b1100100 I
0d
1e
b100011 _
b1 w
b10 x
b1010 v
b100011 b
b101000000100011 h
1E"
b10 4"
b10 >"
0C"
0R"
b111 ^
b111 ""
b1001 B"
1W"
1,"
b1000 V"
b1000 *"
b11111111111111111111111111111111 "
b11111111111111111111111111111111 2
b11111111111111111111111111111111 D
b11111111111111111111111111111111 W
b11111111111111111111111111111111 %"
b101 P
b10000010000010000000001100100 R
b10000010000010000000001100100 F
b1100000 J
b1011100 M
b1011100 !
b1011100 0
b1011100 C
b1011100 2"
b1011100 @"
b1000100101000000100011 L
b1000100101000000100011 B
b1000100101000000100011 X
b1000100101000000100011 `
b100010 }
b100010 6
b100010 [
b100010 -"
b111 y
b111 V
b1001 {
b1001 5
b1001 Z
b1001 '"
b1001 0"
b1001 ="
b1001 Y"
b1001 U
b1001 $"
b1000 z
b1000 4
b1000 Y
b1000 &"
b1000 /"
b1000 <"
b1000 T
b1000 #"
17"
1=
b100001 9"
b100001 >
b11111111111111111111111111111111 6"
b11111111111111111111111111111111 <
b11111111111111111111111111111111 X"
1#
1.
